{
  "name": "react_hosting",
  "version": "0.1.0",
  "private": true,
  "dependencies": {
    "@emotion/react": "^11.9.0",
    "@emotion/styled": "^11.8.1",
    "@mui/icons-material": "^5.6.2",
    "@mui/material": "^5.6.4",
    "@reduxjs/toolkit": "^1.8.1",
    "bootstrap": "^5.1.3",
    "crypto-js": "^4.1.1",
    "css-loader": "^6.7.1",
    "downshift": "^6.1.7",
    "draft-convert": "^2.1.12",
    "firebase": "^9.7.0",
    "firebaseui": "^6.0.1",
    "mui-rte": "^2.0.1",
    "react": "^17.0.0",
    "react-dom": "^17.0.0",
    "react-hook-form": "^7.30.0",
    "react-redux": "^8.0.1",
    "react-router-dom": "^6.3.0",
    "react-scripts": "^2.1.3",
    "recharts": "^2.1.9",
    "redux": "^4.2.0",
    "redux-thunk": "^2.4.1",
    "sass": "^1.51.0",
    "sass-loader": "^12.6.0",
    "style-loader": "^3.3.1",
    "uuid": "^8.3.2",
    "web-vitals": "^2.1.4"
  },
  "scripts": {
    "start": "react-scripts start",
    "build": "react-scripts build",
    "test": "react-scripts test",
    "eject": "react-scripts eject"
  },
  "eslintConfig": {
    "extends": [
      "react-app",
      "react-app/jest"
    ]
  },
  "browserslist": {
    "production": [
      ">0.2%",
      "not dead",
      "not op_mini all"
    ],
    "development": [
      "last 1 chrome version",
      "last 1 firefox version",
      "last 1 safari version"
    ]
  }
}
